  {
    "version": 1,
    "type": "doc",
    "content": [
      {
        "type": "paragraph",
        "content": [
          {
            "type": "text",
            "text": "Hello, ",
            "marks": [
              {
                "type": "link",
                "attrs": {
                  "href": "https://www.atlassian.com"
                }
              }
            ]
          },
          {
            "type": "text",
            "text": "World!",
            "marks": [
              {
                "type": "link",
                "attrs": {
                  "href": "https://www.atlassian.com"
                }
              },
              {
                "type": "strong"
              }
            ]
          },
          {
            "type": "text",
            "text": " Look I can do "
          },
          {
            "type": "text",
            "text": "italic ",
            "marks": [
              {
                "type": "em"
              }
            ]
          },
          {
            "type": "text",
            "text": ", strong ",
            "marks": [
              {
                "type": "em"
              },
              {
                "type": "strong"
              }
            ]
          },
          {
            "type": "text",
            "text": "and underlined text!",
            "marks": [
              {
                "type": "em"
              },
              {
                "type": "strong"
              },
              {
                "type": "underline"
              }
            ]
          }
        ]
      },
      {
        "type": "paragraph",
        "content": [
          {
            "type": "text",
            "text": "My favourite emoji are "
          },
          {
            "type": "emoji",
            "attrs": {
              "shortName": ":grin:",
              "id": "1f601",
              "text": "😁"
            }
          },
          {
            "type": "text",
            "text": " "
          },
          {
            "type": "emoji",
            "attrs": {
              "shortName": ":evilburns:",
              "id": "atlassian-evilburns",
              "text": ":evilburns:"
            }
          },
          {
            "type": "text",
            "text": " "
          },
          {
            "type": "emoji",
            "attrs": {
              "shortName": ":not-an-emoji:",
              "id": "",
              "text": ""
            }
          },
          {
            "type": "text",
            "text": ". What are yours?"
          }
        ]
      },
      {
        "type": "paragraph",
        "content": [
          {
            "type": "text",
            "text": "Hi, my name is... My name is... My name is... My name is "
          },
          {
            "type": "mention",
            "attrs": {
              "id": "1",
              "text": "@Oscar Wallhult",
              "accessLevel": ""
            }
          },
          {
            "type": "text",
            "text": " :D"
          }
        ]
      },
      {
        "type": "paragraph",
        "content": [
          {
            "type": "text",
            "text": "italic",
            "marks": [
              {
                "type": "em"
              }
            ]
          },
          {
            "type": "text",
            "text": "link",
            "marks": [
              {
                "type": "link",
                "attrs": {
                  "href": "https://www.atlassian.com"
                }
              }
            ]
          },
          {
            "type": "text",
            "text": "strike-through",
            "marks": [
              {
                "type": "strike"
              }
            ]
          },
          {
            "type": "text",
            "text": "strong",
            "marks": [
              {
                "type": "strong"
              }
            ]
          },
          {
            "type": "text",
            "text": "sub",
            "marks": [
              {
                "type": "subsup",
                "attrs": {
                  "type": "sub"
                }
              }
            ]
          },
          {
            "type": "text",
            "text": "sup",
            "marks": [
              {
                "type": "subsup",
                "attrs": {
                  "type": "sup"
                }
              }
            ]
          },
          {
            "type": "text",
            "text": "underline",
            "marks": [
              {
                "type": "underline"
              }
            ]
          },
          {
            "type": "text",
            "text": " red text ",
            "marks": [
              {
                "type": "textColor",
                "attrs": {
                  "color": "#ff0000"
                }
              }
            ]
          },
          {
            "type": "text",
            "text": "strike-through",
            "marks": [
              {
                "type": "textColor",
                "attrs": {
                  "color": "#ff0000"
                }
              },
              {
                "type": "strike"
              }
            ]
          },
          {
            "type": "text",
            "text": " ",
            "marks": [
              {
                "type": "textColor",
                "attrs": {
                  "color": "#ff0000"
                }
              }
            ]
          },
          {
            "type": "text",
            "text": "underline",
            "marks": [
              {
                "type": "textColor",
                "attrs": {
                  "color": "#ff0000"
                }
              },
              {
                "type": "underline"
              }
            ]
          },
          {
            "type": "text",
            "text": " ",
            "marks": [
              {
                "type": "textColor",
                "attrs": {
                  "color": "#ff0000"
                }
              }
            ]
          },
          {
            "type": "text",
            "text": "mixed",
            "marks": [
              {
                "type": "em"
              },
              {
                "type": "strong"
              },
              {
                "type": "textColor",
                "attrs": {
                  "color": "#ff0000"
                }
              },
              {
                "type": "strike"
              },
              {
                "type": "subsup",
                "attrs": {
                  "type": "sup"
                }
              },
              {
                "type": "underline"
              }
            ]
          }
        ]
      },
      {
        "type": "paragraph",
        "content": [
          {
            "type": "text",
            "text": "some inline code: "
          },
          {
            "type": "text",
            "text": "const foo = bar();",
            "marks": [
              {
                "type": "code"
              }
            ]
          }
        ]
      },
      {
        "type": "paragraph",
        "content": [
          {
            "type": "text",
            "text": "This is a line with "
          },
          {
            "type": "hardBreak"
          },
          {
            "type": "text",
            "text": "a hardbreak in it."
          }
        ]
      },
      {
        "type": "paragraph",
        "content": [
          {
            "type": "date",
            "attrs": {
              "timestamp": "1540425600000"
            }
          },
          {
            "type": "text",
            "text": " "
          }
        ]
      },
      {
        "type": "heading",
        "attrs": {
          "level": 1
        },
        "content": [
          {
            "type": "text",
            "text": "Heading 1"
          }
        ]
      },
      {
        "type": "heading",
        "attrs": {
          "level": 2
        },
        "content": [
          {
            "type": "text",
            "text": "Heading 2",
            "marks": [
              {
                "type": "link",
                "attrs": {
                  "href": "www.atlassian.com"
                }
              }
            ]
          }
        ]
      },
      {
        "type": "heading",
        "attrs": {
          "level": 3
        },
        "content": [
          {
            "type": "text",
            "text": "Heading 3"
          }
        ]
      },
      {
        "type": "heading",
        "attrs": {
          "level": 4
        },
        "content": [
          {
            "type": "text",
            "text": "Heading 4"
          }
        ]
      },
      {
        "type": "heading",
        "attrs": {
          "level": 5
        },
        "content": [
          {
            "type": "text",
            "text": "Heading 5"
          }
        ]
      },
      {
        "type": "heading",
        "attrs": {
          "level": 6
        },
        "content": [
          {
            "type": "text",
            "text": "Heading 6"
          }
        ]
      },
      {
        "type": "paragraph",
        "content": [
          {
            "type": "text",
            "text": "This is a paragraph with a text node"
          },
          {
            "type": "text",
            "text": "\n"
          },
          {
            "type": "text",
            "text": "that contains a new line"
          }
        ]
      },
      {
        "type": "paragraph",
        "content": [
          {
            "type": "text",
            "text": "Click me! ",
            "marks": [
              {
                "type": "link",
                "attrs": {
                  "href": "javascript:alert(\"hello world\")"
                }
              }
            ]
          },
          {
            "type": "text",
            "text": "www.atlassian.com",
            "marks": [
              {
                "type": "link",
                "attrs": {
                  "href": "www.atlassian.com"
                }
              }
            ]
          }
        ]
      },
      {
        "type": "codeBlock",
        "attrs": {
          "language": "javascript"
        },
        "content": [
          {
            "type": "text",
            "text": "// Create a map.\nfinal IntIntOpenHashMap map = new IntIntOpenHashMap();\nmap.put(1, 2);\nmap.put(2, 5);\nmap.put(3, 10);"
          },
          {
            "type": "text",
            "text": "\nint count = map.forEach(new IntIntProcedure()\n{\n   int count;\n   public void apply(int key, int value)\n   {\n       if (value >= 5) count++;\n   }\n}).count;\nSystem.out.println(\"There are \" + count + \" values >= 5\");"
          }
        ]
      },
      {
        "type": "mediaSingle",
        "attrs": {
          "layout": "full-width"
        },
        "content": [
          {
            "type": "media",
            "attrs": {
              "id": "a559980d-cd47-43e2-8377-27359fcb905f",
              "type": "file",
              "collection": "MediaServicesSample",
              "width": 300,
              "height": 200
            }
          }
        ]
      },
      {
        "type": "mediaGroup",
        "content": [
          {
            "type": "media",
            "attrs": {
              "id": "a559980d-cd47-43e2-8377-27359fcb905f",
              "type": "file",
              "collection": "MediaServicesSample"
            }
          }
        ]
      },
      {
        "type": "mediaGroup",
        "content": [
          {
            "type": "media",
            "attrs": {
              "id": "a559980d-cd47-43e2-8377-27359fcb905f",
              "type": "file",
              "collection": "MediaServicesSample"
            }
          },
          {
            "type": "media",
            "attrs": {
              "id": "a559980d-cd47-43e2-8377-27359fcb905f",
              "type": "file",
              "collection": "MediaServicesSample"
            }
          }
        ]
      },
      {
        "type": "bulletList",
        "content": [
          {
            "type": "listItem",
            "content": [
              {
                "type": "paragraph",
                "content": [
                  {
                    "type": "text",
                    "text": "First list item"
                  }
                ]
              }
            ]
          },
          {
            "type": "listItem",
            "content": [
              {
                "type": "paragraph",
                "content": [
                  {
                    "type": "text",
                    "text": "Second list item"
                  }
                ]
              }
            ]
          },
          {
            "type": "listItem",
            "content": [
              {
                "type": "paragraph",
                "content": [
                  {
                    "type": "text",
                    "text": "Third list item"
                  }
                ]
              }
            ]
          }
        ]
      },
      {
        "type": "orderedList",
        "content": [
          {
            "type": "listItem",
            "content": [
              {
                "type": "paragraph",
                "content": [
                  {
                    "type": "text",
                    "text": "First list item"
                  }
                ]
              }
            ]
          },
          {
            "type": "listItem",
            "content": [
              {
                "type": "paragraph",
                "content": [
                  {
                    "type": "text",
                    "text": "Second list item"
                  }
                ]
              }
            ]
          },
          {
            "type": "listItem",
            "content": [
              {
                "type": "paragraph",
                "content": [
                  {
                    "type": "text",
                    "text": "Third list item"
                  }
                ]
              }
            ]
          }
        ]
      },
      {
        "type": "blockquote",
        "content": [
          {
            "type": "paragraph",
            "content": [
              {
                "type": "text",
                "text": "All that is gold does not glitter, not all those who wander are lost; The old that is strong does not wither, deep roots are not reached by the frost."
              }
            ]
          },
          {
            "type": "paragraph",
            "content": [
              {
                "type": "text",
                "text": "From the ashes a fire shall be woken, a light from the shadows shall spring; Renewed shall be blade that was broken, the crownless again shall be king."
              }
            ]
          },
          {
            "type": "paragraph",
            "content": [
              {
                "type": "text",
                "text": "J.R.R. Tolkien, The Fellowship of the Ring.",
                "marks": [
                  {
                    "type": "em"
                  }
                ]
              }
            ]
          }
        ]
      },
      {
        "type": "panel",
        "attrs": {
          "panelType": "info"
        },
        "content": [
          {
            "type": "paragraph",
            "content": [
              {
                "type": "text",
                "text": "This is an info panel with "
              },
              {
                "type": "text",
                "text": "bold text",
                "marks": [
                  {
                    "type": "strong"
                  }
                ]
              }
            ]
          }
        ]
      },
      {
        "type": "panel",
        "attrs": {
          "panelType": "note"
        },
        "content": [
          {
            "type": "paragraph",
            "content": [
              {
                "type": "text",
                "text": "This is a note panel with "
              },
              {
                "type": "text",
                "text": "bold text",
                "marks": [
                  {
                    "type": "strong"
                  }
                ]
              }
            ]
          }
        ]
      },
      {
        "type": "panel",
        "attrs": {
          "panelType": "tip"
        },
        "content": [
          {
            "type": "paragraph",
            "content": [
              {
                "type": "text",
                "text": "This is a tip panel with "
              },
              {
                "type": "text",
                "text": "bold text",
                "marks": [
                  {
                    "type": "strong"
                  }
                ]
              }
            ]
          }
        ]
      },
      {
        "type": "panel",
        "attrs": {
          "panelType": "success"
        },
        "content": [
          {
            "type": "paragraph",
            "content": [
              {
                "type": "text",
                "text": "This is a success panel with "
              },
              {
                "type": "text",
                "text": "bold text",
                "marks": [
                  {
                    "type": "strong"
                  }
                ]
              }
            ]
          }
        ]
      },
      {
        "type": "panel",
        "attrs": {
          "panelType": "warning"
        },
        "content": [
          {
            "type": "paragraph",
            "content": [
              {
                "type": "text",
                "text": "This is a warning panel with "
              },
              {
                "type": "text",
                "text": "bold text",
                "marks": [
                  {
                    "type": "strong"
                  }
                ]
              }
            ]
          }
        ]
      },
      {
        "type": "panel",
        "attrs": {
          "panelType": "error"
        },
        "content": [
          {
            "type": "paragraph",
            "content": [
              {
                "type": "text",
                "text": "This is a error panel with "
              },
              {
                "type": "text",
                "text": "bold text",
                "marks": [
                  {
                    "type": "strong"
                  }
                ]
              }
            ]
          }
        ]
      },
      {
        "type": "rule"
      },
      {
        "type": "decisionList",
        "attrs": {
          "localId": "empty-list-should-not-render"
        },
        "content": [
          {
            "type": "decisionItem",
            "attrs": {
              "localId": "to-be-ignored-as-no-content",
              "state": "DECIDED"
            }
          }
        ]
      },
      {
        "type": "taskList",
        "attrs": {
          "localId": "empty-list-should-not-render"
        },
        "content": [
          {
            "type": "taskItem",
            "attrs": {
              "localId": "to-be-ignored-as-no-content",
              "state": "TODO"
            }
          }
        ]
      },
      {
        "type": "decisionList",
        "attrs": {
          "localId": "04983953-8c1d-4e39-a7e8-f2bb82a3c4fd"
        },
        "content": [
          {
            "type": "decisionItem",
            "attrs": {
              "localId": "846bc10f-e371-44e3-b8c3-dfb93a78bab4",
              "state": "DECIDED"
            },
            "content": [
              {
                "type": "text",
                "text": "Hello world"
              },
              {
                "type": "hardBreak"
              },
              {
                "type": "text",
                "text": "This is a decision "
              },
              {
                "type": "emoji",
                "attrs": {
                  "shortName": ":wink:",
                  "id": "1f609",
                  "text": "😉"
                }
              },
              {
                "type": "text",
                "text": " "
              },
              {
                "type": "mention",
                "attrs": {
                  "id": "0",
                  "text": "@Carolyn",
                  "accessLevel": "CONTAINER"
                }
              },
              {
                "type": "text",
                "text": " "
              },
              {
                "type": "text",
                "text": "was",
                "marks": [
                  {
                    "type": "strong"
                  }
                ]
              },
              {
                "type": "text",
                "text": " "
              },
              {
                "type": "text",
                "text": "here",
                "marks": [
                  {
                    "type": "em"
                  },
                  {
                    "type": "underline"
                  }
                ]
              },
              {
                "type": "text",
                "text": "."
              },
              {
                "type": "mention",
                "attrs": {
                  "id": "error:NotFound",
                  "text": "@NoLongerWorksHere",
                  "accessLevel": "CONTAINER"
                }
              },
              {
                "type": "text",
                "text": " "
              },
              {
                "type": "text",
                "text": "is not",
                "marks": [
                  {
                    "type": "strong"
                  }
                ]
              },
              {
                "type": "text",
                "text": " "
              },
              {
                "type": "text",
                "text": "here."
              }
            ]
          },
          {
            "type": "decisionItem",
            "attrs": {
              "localId": "7fd1b2e0-f0a9-46db-a6e0-81849d1186c8",
              "state": "DECIDED"
            },
            "content": [
              {
                "type": "text",
                "text": "decision 2"
              }
            ]
          },
          {
            "type": "decisionItem",
            "attrs": {
              "localId": "to-be-ignored-as-no-content",
              "state": "DECIDED"
            }
          }
        ]
      },
      {
        "type": "taskList",
        "attrs": {
          "localId": "4df145dd-7cfa-4f36-a799-27da6ccf7193"
        },
        "content": [
          {
            "type": "taskItem",
            "attrs": {
              "localId": "task-1",
              "state": "TODO"
            },
            "content": [
              {
                "type": "text",
                "text": "Could you please"
              },
              {
                "type": "hardBreak"
              },
              {
                "type": "text",
                "text": "do this "
              },
              {
                "type": "mention",
                "attrs": {
                  "id": "0",
                  "text": "@Carolyn",
                  "accessLevel": "CONTAINER"
                }
              },
              {
                "type": "text",
                "text": " "
              },
              {
                "type": "emoji",
                "attrs": {
                  "shortName": ":wink:",
                  "id": "1f609",
                  "text": "😉"
                }
              }
            ]
          },
          {
            "type": "taskItem",
            "attrs": {
              "localId": "task-2",
              "state": "DONE"
            },
            "content": [
              {
                "type": "text",
                "text": "This is completed"
              }
            ]
          },
          {
            "type": "taskItem",
            "attrs": {
              "localId": "to-be-ignored-as-no-content",
              "state": "TODO"
            }
          }
        ]
      },
      {
        "type": "table",
        "attrs": {
          "isNumberColumnEnabled": false,
          "layout": "default"
        },
        "content": [
          {
            "type": "tableRow",
            "content": [
              {
                "type": "tableHeader",
                "attrs": {
                  "colspan": 2,
                  "colwidth": [
                    233,
                    100
                  ]
                },
                "content": [
                  {
                    "type": "paragraph",
                    "content": [
                      {
                        "type": "text",
                        "text": "Heading 1"
                      }
                    ]
                  }
                ]
              },
              {
                "type": "tableHeader",
                "attrs": {
                  "background": "#DEEBFF"
                },
                "content": [
                  {
                    "type": "paragraph",
                    "content": [
                      {
                        "type": "text",
                        "text": "Heading 2"
                      }
                    ]
                  }
                ]
              }
            ]
          },
          {
            "type": "tableRow",
            "content": [
              {
                "type": "tableCell",
                "attrs": {
                  "colwidth": [
                    233
                  ]
                },
                "content": [
                  {
                    "type": "paragraph",
                    "content": [
                      {
                        "type": "text",
                        "text": "Some content"
                      }
                    ]
                  }
                ]
              },
              {
                "type": "tableCell",
                "attrs": {
                  "colwidth": [
                    100
                  ]
                },
                "content": [
                  {
                    "type": "paragraph",
                    "content": [
                      {
                        "type": "text",
                        "text": "Some content"
                      }
                    ]
                  }
                ]
              },
              {
                "type": "tableCell",
                "attrs": {},
                "content": [
                  {
                    "type": "paragraph",
                    "content": [
                      {
                        "type": "text",
                        "text": "Some content"
                      }
                    ]
                  }
                ]
              }
            ]
          },
          {
            "type": "tableRow",
            "content": [
              {
                "type": "tableCell",
                "attrs": {
                  "colwidth": [
                    233
                  ]
                },
                "content": [
                  {
                    "type": "paragraph",
                    "content": [
                      {
                        "type": "text",
                        "text": "Some content"
                      }
                    ]
                  }
                ]
              },
              {
                "type": "tableCell",
                "attrs": {
                  "colwidth": [
                    100
                  ]
                },
                "content": [
                  {
                    "type": "paragraph",
                    "content": [
                      {
                        "type": "text",
                        "text": "Some content"
                      }
                    ]
                  }
                ]
              },
              {
                "type": "tableCell",
                "attrs": {},
                "content": [
                  {
                    "type": "paragraph",
                    "content": [
                      {
                        "type": "text",
                        "text": "Some content"
                      }
                    ]
                  }
                ]
              }
            ]
          }
        ]
      },
      {
        "type": "heading",
        "attrs": {
          "level": 1
        },
        "content": [
          {
            "type": "text",
            "text": "Media single without width defined"
          }
        ]
      },
      {
        "type": "mediaSingle",
        "attrs": {
          "layout": "full-width"
        },
        "content": [
          {
            "type": "media",
            "attrs": {
              "id": "a559980d-cd47-43e2-8377-27359fcb905f",
              "type": "file",
              "collection": "MediaServicesSample"
            }
          }
        ]
      },
      {
        "type": "bodiedExtension",
        "attrs": {
          "extensionType": "com.atlassian.fabric",
          "extensionKey": "clock",
          "layout": "default"
        },
        "content": [
          {
            "type": "paragraph",
            "content": [
              {
                "type": "text",
                "text": "This is the default content of the extension"
              }
            ]
          }
        ]
      },
      {
        "type": "heading",
        "attrs": {
          "level": 1
        },
        "content": [
          {
            "type": "text",
            "text": "Sections"
          }
        ]
      },
      {
        "type": "layoutSection",
        "content": [
          {
            "type": "layoutColumn",
            "attrs": {
              "width": 33.33
            },
            "content": [
              {
                "type": "paragraph",
                "content": [
                  {
                    "type": "text",
                    "text": "This column is a 1/3rd."
                  }
                ]
              }
            ]
          },
          {
            "type": "layoutColumn",
            "attrs": {
              "width": 66.66
            },
            "content": [
              {
                "type": "paragraph",
                "content": [
                  {
                    "type": "text",
                    "text": "This column is 2/3rds."
                  }
                ]
              }
            ]
          }
        ]
      }
    ]
  }
