{
  "version": 1,
  "type": "doc",
  "content": [
    {
      "type": "mediaSingle",
      "attrs": {
        "width": 83.33333333333334,
        "layout": "center"
      },
      "content": [
        {
          "type": "media",
          "attrs": {
            "id": "a559980d-cd47-43e2-8377-27359fcb905f",
            "type": "file",
            "collection": "MediaServicesSample",
            "width": 2048,
            "height": 1357
          }
        }
      ]
    },
    {
      "type": "paragraph",
      "content": []
    }
  ]
}
