{
  "version": 1,
  "type": "doc",
  "content": [
    {
      "type": "paragraph",
      "content": []
    },
    {
      "type": "mediaSingle",
      "attrs": {
        "width": 50,
        "layout": "wrap-left"
      },
      "content": [
        {
          "type": "media",
          "attrs": {
            "id": "a559980d-cd47-43e2-8377-27359fcb905f",
            "type": "file",
            "collection": "MediaServicesSample",
            "width": 3496,
            "height": 5277
          }
        }
      ]
    },
    {
      "type": "mediaSingle",
      "attrs": {
        "width": 50,
        "layout": "wrap-right"
      },
      "content": [
        {
          "type": "media",
          "attrs": {
            "id": "a559980d-cd47-43e2-8377-27359fcb905f",
            "type": "file",
            "collection": "MediaServicesSample",
            "width": 3648,
            "height": 5472
          }
        }
      ]
    },
    {
      "type": "mediaSingle",
      "attrs": {
        "width": 50,
        "layout": "wrap-left"
      },
      "content": [
        {
          "type": "media",
          "attrs": {
            "id": "a559980d-cd47-43e2-8377-27359fcb905f",
            "type": "file",
            "collection": "MediaServicesSample",
            "width": 4128,
            "height": 6192
          }
        }
      ]
    },
    {
      "type": "mediaSingle",
      "attrs": {
        "width": 50,
        "layout": "wrap-right"
      },
      "content": [
        {
          "type": "media",
          "attrs": {
            "id": "a559980d-cd47-43e2-8377-27359fcb905f",
            "type": "file",
            "collection": "MediaServicesSample",
            "width": 3648,
            "height": 5472
          }
        }
      ]
    },
    {
      "type": "mediaSingle",
      "attrs": {
        "width": 50,
        "layout": "wrap-left"
      },
      "content": [
        {
          "type": "media",
          "attrs": {
            "id": "a559980d-cd47-43e2-8377-27359fcb905f",
            "type": "file",
            "collection": "MediaServicesSample",
            "width": 4000,
            "height": 6000
          }
        }
      ]
    },
    {
      "type": "mediaSingle",
      "attrs": {
        "width": 50,
        "layout": "wrap-right"
      },
      "content": [
        {
          "type": "media",
          "attrs": {
            "id": "a559980d-cd47-43e2-8377-27359fcb905f",
            "type": "file",
            "collection": "MediaServicesSample",
            "width": 3479,
            "height": 5219
          }
        }
      ]
    },
    {
      "type": "paragraph",
      "content": []
    }
  ]
}
